<?xml version="1.0" encoding="UTF-8"?>
<!-- Generator: Adobe Illustrator 16.0.0, SVG Export Plug-In . SVG Version: 6.00 Build 0)  -->
<!DOCTYPE svg PUBLIC "-//W3C//DTD SVG 1.1//EN" "http://www.w3.org/Graphics/SVG/1.1/DTD/svg11.dtd">
<svg version="1.1" id="Шар_1" xmlns="http://www.w3.org/2000/svg" xmlns:xlink="http://www.w3.org/1999/xlink" x="0px" y="0px" width="8.906px" height="6.248px" viewBox="0 0 8.906 6.248" enable-background="new 0 0 8.906 6.248" xml:space="preserve">
<polygon fill-rule="evenodd" clip-rule="evenodd" points="8.906,0 4.375,6.248 0,0.006 8.906,0 "/>
</svg>