<?xml version="1.0" encoding="UTF-8"?>
<!-- Generator: Adobe Illustrator 17.1.0, SVG Export Plug-In . SVG Version: 6.00 Build 0)  -->
<!DOCTYPE svg PUBLIC "-//W3C//DTD SVG 1.1//EN" "http://www.w3.org/Graphics/SVG/1.1/DTD/svg11.dtd">
<svg version="1.1" id="Layer_1" xmlns="http://www.w3.org/2000/svg" xmlns:xlink="http://www.w3.org/1999/xlink" x="0px" y="0px" viewBox="0 0 434.1 434.1" enable-background="new 0 0 434.1 434.1" xml:space="preserve">
<g>
	<g>
		<g enable-background="new    ">
			<g>
				<g>
					<defs>
						<path id="SVGID_1_" d="M156,80.3l71.5-71.5c11.8-11.8,30.3-11.8,42.1,0l155.6,155.6c11.8,11.8,11.8,30.3,0,42.1L206.5,425.2        c-11.8,11.8-30.3,11.8-42.1,0L8.8,269.6c-11.8-11.8-11.8-30.3,0-42.1l79.9-79.9"/>
					</defs>
					<clipPath id="SVGID_2_">
						<use xlink:href="#SVGID_1_" overflow="visible"/>
					</clipPath>
					<g clip-path="url(#SVGID_2_)">
						<rect x="-5" y="-5" fill="rgb(126, 126, 126)" width="444.1" height="444.1"/>
					</g>
				</g>
			</g>
		</g>
	</g>
</g>
<g>
	<g>
		<g enable-background="new    ">
			<g>
				<g>
					<defs>
						<path id="SVGID_3_" d="M395.8,135l8.4,8.4l-21.9,21.9c-6.3,6.3-17.2,6.3-23.6,0l-90-90c-6.3-6.3-6.3-17.2,0-23.6l21.9-21.9        l8.4,8.4"/>
					</defs>
					<clipPath id="SVGID_4_">
						<use xlink:href="#SVGID_3_" overflow="visible"/>
					</clipPath>
					<g clip-path="url(#SVGID_4_)">
						<rect x="259" y="24.9" fill="white" width="150.2" height="150.2"/>
					</g>
				</g>
			</g>
		</g>
	</g>
</g>
<g>
	<defs>
		
			<rect id="SVGID_5_" x="206.6" y="145.9" transform="matrix(-0.7071 -0.7071 0.7071 -0.7071 367.2413 455.7897)" width="142.8" height="11.9"/>
	</defs>
	<clipPath id="SVGID_6_">
		<use xlink:href="#SVGID_5_" overflow="visible"/>
	</clipPath>
	<g clip-path="url(#SVGID_6_)">
		<rect x="218.3" y="92.2" fill="white" width="119.4" height="119.4"/>
	</g>
</g>
<g>
	<defs>
		
			<rect id="SVGID_7_" x="190.8" y="154.3" transform="matrix(-0.7071 -0.7071 0.7071 -0.7071 303.8521 446.3571)" width="107.1" height="11.9"/>
	</defs>
	<clipPath id="SVGID_8_">
		<use xlink:href="#SVGID_7_" overflow="visible"/>
	</clipPath>
	<g clip-path="url(#SVGID_8_)">
		<defs>
			<rect id="SVGID_9_" x="-979.6" y="-4726.6" width="1366" height="6084"/>
		</defs>
		<clipPath id="SVGID_10_">
			<use xlink:href="#SVGID_9_" overflow="visible"/>
		</clipPath>
		<rect x="197.3" y="113.2" clip-path="url(#SVGID_10_)" fill="white" width="94.1" height="94.1"/>
	</g>
</g>
<g>
	<defs>
		
			<rect id="SVGID_11_" x="165.5" y="185.8" transform="matrix(-0.7071 -0.7071 0.7071 -0.7071 263.596 492.7728)" width="136.8" height="11.9"/>
	</defs>
	<clipPath id="SVGID_12_">
		<use xlink:href="#SVGID_11_" overflow="visible"/>
	</clipPath>
	<g clip-path="url(#SVGID_12_)">
		<defs>
			<rect id="SVGID_13_" x="-979.6" y="-4726.6" width="1366" height="6084"/>
		</defs>
		<clipPath id="SVGID_14_">
			<use xlink:href="#SVGID_13_" overflow="visible"/>
		</clipPath>
		<rect x="176.3" y="134.2" clip-path="url(#SVGID_14_)" fill="white" width="115.2" height="115.2"/>
	</g>
</g>
<g>
	<defs>
		<polygon id="SVGID_15_" points="135.5,137.7 158.9,137.7 147.6,173.5   "/>
	</defs>
	<clipPath id="SVGID_16_">
		<use xlink:href="#SVGID_15_" overflow="visible"/>
	</clipPath>
	<g clip-path="url(#SVGID_16_)">
		<defs>
			<rect id="SVGID_17_" x="-979.6" y="-4726.6" width="1366" height="6084"/>
		</defs>
		<clipPath id="SVGID_18_">
			<use xlink:href="#SVGID_17_" overflow="visible"/>
		</clipPath>
		<rect x="130.5" y="132.7" clip-path="url(#SVGID_18_)" fill="rgb(186, 186, 186)" width="33.3" height="45.8"/>
	</g>
</g>
<g>
	<g>
		<g enable-background="new    ">
			<g>
				<g>
					<defs>
						<rect id="SVGID_19_" x="135.6" y="24.2" width="23.3" height="113.6"/>
					</defs>
					<clipPath id="SVGID_20_">
						<use xlink:href="#SVGID_19_" overflow="visible"/>
					</clipPath>
					<g clip-path="url(#SVGID_20_)">
						<defs>
							<rect id="SVGID_21_" x="135.4" y="23.4" width="24" height="151"/>
						</defs>
						<clipPath id="SVGID_22_">
							<use xlink:href="#SVGID_21_" overflow="visible"/>
						</clipPath>
						<rect x="130.6" y="19.2" clip-path="url(#SVGID_22_)" fill="white" width="33.3" height="123.6"/>
					</g>
				</g>
				<g>
					<defs>
						<polygon id="SVGID_23_" points="143.6,161.6 151.3,161.6 147.6,173.5       "/>
					</defs>
					<clipPath id="SVGID_24_">
						<use xlink:href="#SVGID_23_" overflow="visible"/>
					</clipPath>
					<g clip-path="url(#SVGID_24_)">
						<defs>
							<rect id="SVGID_25_" x="135.4" y="23.4" width="24" height="151"/>
						</defs>
						<clipPath id="SVGID_26_">
							<use xlink:href="#SVGID_25_" overflow="visible"/>
						</clipPath>
						<rect x="138.6" y="156.6" clip-path="url(#SVGID_26_)" fill="white" width="17.7" height="21.9"/>
					</g>
				</g>
			</g>
		</g>
	</g>
</g>
</svg>